{
  "success": 1,
  "data": [
    {
      "post_id": 1,
      "post_content": "https://milan_patel.gitlab.io/funny-memes/images/31313a31343a3036_70954831_943635402669979_4252357762975006720_n.jpg"
    },{
      "post_id": 2,
      "post_content": "https://milan_patel.gitlab.io/funny-memes/31313a31343a3130_70910925_708707132941112_5553318904715018240_n.jpg"
    },{
      "post_id": 3,
      "post_content": "https://milan_patel.gitlab.io/funny-memes/31313a31343a3133_70871410_365834624369424_1538598177534377984_n.jpg"
    },{
      "post_id": 4,
      "post_content": "https://milan_patel.gitlab.io/funny-memes/31313a31343a3136_70786894_516907539136071_9194411905601503232_n.jpg"
    },{
      "post_id": 5,
      "post_content": "https://milan_patel.gitlab.io/funny-memes/31313a31343a3139_70785513_178501679859035_1719507899463499776_n.jpg"
    }
  ]
}
